module gitlab.com/emink/os-iterator

go 1.22.0

require (
	github.com/gin-gonic/gin v1.10.0
	github.com/gophercloud/gophercloud v1.11.0
	github.com/gophercloud/utils v0.0.0-20231010081019-80377eca5d56
	github.com/redis/go-redis/v9 v9.5.1
	github.com/sirupsen/logrus v1.9.3
	github.com/spf13/cobra v1.8.0
	gopkg.in/yaml.v3 v3.0.1
)

require (
	github.com/bytedance/sonic v1.11.9 // indirect
	github.com/bytedance/sonic/loader v0.1.1 // indirect
	github.com/cespare/xxhash/v2 v2.2.0 // indirect
	github.com/cloudwego/base64x v0.1.4 // indirect
	github.com/cloudwego/iasm v0.2.0 // indirect
	github.com/dgryski/go-rendezvous v0.0.0-20200823014737-9f7001d12a5f // indirect
	github.com/gabriel-vasile/mimetype v1.4.4 // indirect
	github.com/gin-contrib/sse v0.1.0 // indirect
	github.com/go-playground/locales v0.14.1 // indirect
	github.com/go-playground/universal-translator v0.18.1 // indirect
	github.com/go-playground/validator/v10 v10.22.0 // indirect
	github.com/goccy/go-json v0.10.3 // indirect
	github.com/hashicorp/go-uuid v1.0.3 // indirect
	github.com/inconshreveable/mousetrap v1.1.0 // indirect
	github.com/json-iterator/go v1.1.12 // indirect
	github.com/klauspost/cpuid/v2 v2.2.8 // indirect
	github.com/leodido/go-urn v1.4.0 // indirect
	github.com/mattn/go-isatty v0.0.20 // indirect
	github.com/mitchellh/go-homedir v1.1.0 // indirect
	github.com/modern-go/concurrent v0.0.0-20180306012644-bacd9c7ef1dd // indirect
	github.com/modern-go/reflect2 v1.0.2 // indirect
	github.com/pelletier/go-toml/v2 v2.2.2 // indirect
	github.com/spf13/pflag v1.0.5 // indirect
	github.com/twitchyliquid64/golang-asm v0.15.1 // indirect
	github.com/ugorji/go/codec v1.2.12 // indirect
	golang.org/x/arch v0.8.0 // indirect
	golang.org/x/crypto v0.25.0 // indirect
	golang.org/x/net v0.27.0 // indirect
	golang.org/x/sys v0.22.0 // indirect
	golang.org/x/text v0.16.0 // indirect
	google.golang.org/protobuf v1.34.2 // indirect
	gopkg.in/yaml.v2 v2.4.0 // indirect
)
